<svg width="481" height="380" viewBox="0 0 481 380" fill="none" xmlns="http://www.w3.org/2000/svg">
<g filter="url(#filter0_d_1152_420)">
<rect x="18" y="12" width="445" height="344" rx="4" fill="white"/>
</g>
<defs>
<filter id="filter0_d_1152_420" x="0" y="0" width="481" height="380" filterUnits="userSpaceOnUse" color-interpolation-filters="sRGB">
<feFlood flood-opacity="0" result="BackgroundImageFix"/>
<feColorMatrix in="SourceAlpha" type="matrix" values="0 0 0 0 0 0 0 0 0 0 0 0 0 0 0 0 0 0 127 0" result="hardAlpha"/>
<feOffset dy="6"/>
<feGaussianBlur stdDeviation="9"/>
<feColorMatrix type="matrix" values="0 0 0 0 0 0 0 0 0 0 0 0 0 0 0 0 0 0 0.06 0"/>
<feBlend mode="normal" in2="BackgroundImageFix" result="effect1_dropShadow_1152_420"/>
<feBlend mode="normal" in="SourceGraphic" in2="effect1_dropShadow_1152_420" result="shape"/>
</filter>
</defs>
</svg>
